Importação de Dados — Apresentação
…
Mensagens informativas

Carregamento CSV em Julia

using CSV, DataFrames

@time df = CSV.read(
    "yellow_tripdata_2015-01.csv",
    DataFrame;
    limit = 50000
)

  5.666789 seconds (15.15 M allocations: 760.009 MiB, 7.22% gc time, 97.92% compilation time: 32% of which was recompilation)

50000×19 DataFrame
   Row │ VendorID  tpep_pickup_datetime  tpep_dropoff_datetime  passenger_coun ⋯
       │ Int64     String31              String31               Int64          ⋯
───────┼────────────────────────────────────────────────────────────────────────
     1 │        2  2015-01-15 19:05:39   2015-01-15 19:23:42                   ⋯
     2 │        1  2015-01-10 20:33:38   2015-01-10 20:53:28
     3 │        1  2015-01-10 20:33:38   2015-01-10 20:43:41
     4 │        1  2015-01-10 20:33:39   2015-01-10 20:35:31
     5 │        1  2015-01-10 20:33:39   2015-01-10 20:52:58                   ⋯
     6 │        1  2015-01-10 20:33:39   2015-01-10 20:53:52
     7 │        1  2015-01-10 20:33:39   2015-01-10 20:58:31
     8 │        1  2015-01-10 20:33:39   2015-01-10 20:42:20
   ⋮   │    ⋮               ⋮                      ⋮                   ⋮       ⋱
 49994 │        2  2015-01-03 19:53:48   2015-01-03 20:03:54                   ⋯
 49995 │        1  2015-01-03 20:06:27   2015-01-03 20:15:30
 49996 │        2  2015-01-03 20:06:27   2015-01-03 20:13:46
 49997 │        2  2015-01-03 20:06:27   2015-01-03 20:32:38
 49998 │        2  2015-01-03 20:06:27   2015-01-03 20:15:09                   ⋯
 49999 │        1  2015-01-03 20:06:28   2015-01-03 20:27:10
 50000 │        1  2015-01-03 20:06:28   2015-01-03 20:14:19
                                               16 columns and 49985 rows omitted
…
get_stats <- function(x, pos) {
  x %>%
    summarise(n = n())
}

in_chunks <- read_csv_chunked(
  "yellow_tripdata_2015-01.csv",
  callback = DataFrameCallback$new(get_stats),
  chunk_size = 50000
)

in_chunks

# A tibble: 255 × 1
       n
   <int>
 1 50000
 2 50000
 3 50000
 4 50000
 5 50000
 6 50000
 7 50000
 8 50000
 9 50000
10 50000
# ℹ 245 more rows
…
total_rows

12748986

R — Leitura de colunas específicas

readr::read_csv(
  "yellow_tripdata_2015-01.csv",
  col_types = cols_only(
    passenger_count = col_integer(),
    trip_distance = col_double()
  )
)

# A tibble: 12,748,986 × 2
   passenger_count trip_distance
             <int>         <dbl>
 1               1          1.59
 2               1          3.3 
 3               1          1.8 
 4               1          0.5 
 5               1          3   
 6               1          9   
 7               1          2.2 
 8               3          0.8 
 9               3         18.2 
10               2          0.9 
# ℹ 12,748,976 more rows
…
[12748986 rows x 2 columns]

Julia — Seleção de colunas

using CSV, DataFrames

df = CSV.read(
    "yellow_tripdata_2015-01.csv",
    DataFrame;
    select = ["passenger_count", "trip_distance"]
)

12748986×2 DataFrame
      Row │ passenger_count  trip_distance
          │ Int64            Float64
──────────┼────────────────────────────────
        1 │               1           1.59
        2 │               1           3.3
        3 │               1           1.8
        4 │               1           0.5
        5 │               1           3.0
        6 │               1           9.0
        7 │               1           2.2
        8 │               3           0.8
    ⋮     │        ⋮               ⋮
 12748980 │               1           2.3
 12748981 │               1           2.1
 12748982 │               2           1.0
 12748983 │               2           0.8
 12748984 │               1           3.4
 12748985 │               1           1.3
 12748986 │               1           0.7
                      12748971 rows omitted
…
